\relax 
\providecommand\hyper@newdestlabel[2]{}
\providecommand\HyperFirstAtBeginDocument{\AtBeginDocument}
\HyperFirstAtBeginDocument{\ifx\hyper@anchor\@undefined
\global\let\oldcontentsline\contentsline
\gdef\contentsline#1#2#3#4{\oldcontentsline{#1}{#2}{#3}}
\global\let\oldnewlabel\newlabel
\gdef\newlabel#1#2{\newlabelxx{#1}#2}
\gdef\newlabelxx#1#2#3#4#5#6{\oldnewlabel{#1}{{#2}{#3}}}
\AtEndDocument{\ifx\hyper@anchor\@undefined
\let\contentsline\oldcontentsline
\let\newlabel\oldnewlabel
\fi}
\fi}
\global\let\hyper@last\relax 
\gdef\HyperFirstAtBeginDocument#1{#1}
\providecommand\HyField@AuxAddToFields[1]{}
\providecommand\HyField@AuxAddToCoFields[2]{}
\abx@aux@sortscheme{nyt}
\abx@aux@refcontext{nyt/global/}
\abx@aux@cite{etminanetal2016radiative}
\abx@aux@segm{0}{0}{etminanetal2016radiative}
\abx@aux@cite{nisbetetal2016rising}
\abx@aux@segm{0}{0}{nisbetetal2016rising}
\abx@aux@cite{schaeferetal201621st}
\abx@aux@segm{0}{0}{schaeferetal201621st}
\abx@aux@cite{turneretal2017ambiguity}
\abx@aux@segm{0}{0}{turneretal2017ambiguity}
\abx@aux@cite{rigbyetal2017role}
\abx@aux@segm{0}{0}{rigbyetal2017role}
\abx@aux@segm{0}{0}{turneretal2017ambiguity}
\abx@aux@segm{0}{0}{rigbyetal2017role}
\abx@aux@segm{0}{0}{rigbyetal2017role}
\abx@aux@segm{0}{0}{turneretal2017ambiguity}
\abx@aux@segm{0}{0}{turneretal2017ambiguity}
\abx@aux@segm{0}{0}{turneretal2017ambiguity}
\@writefile{toc}{\boolfalse {citerequest}\boolfalse {citetracker}\boolfalse {pagetracker}\boolfalse {backtracker}\relax }
\@writefile{lof}{\boolfalse {citerequest}\boolfalse {citetracker}\boolfalse {pagetracker}\boolfalse {backtracker}\relax }
\@writefile{lot}{\boolfalse {citerequest}\boolfalse {citetracker}\boolfalse {pagetracker}\boolfalse {backtracker}\relax }
\select@language{british}
\@writefile{toc}{\defcounter {refsection}{0}\relax }\@writefile{toc}{\select@language{british}}
\@writefile{lof}{\defcounter {refsection}{0}\relax }\@writefile{lof}{\select@language{british}}
\@writefile{lot}{\defcounter {refsection}{0}\relax }\@writefile{lot}{\select@language{british}}
\@writefile{toc}{\defcounter {refsection}{0}\relax }\@writefile{toc}{\contentsline {section}{\numberline {1}Introduction}{1}{section.1}}
\abx@aux@backref{1}{etminanetal2016radiative}{0}{1}{1}
\abx@aux@page{1}{1}
\abx@aux@backref{2}{nisbetetal2016rising}{0}{1}{1}
\abx@aux@page{2}{1}
\abx@aux@backref{3}{schaeferetal201621st}{0}{1}{1}
\abx@aux@page{3}{1}
\abx@aux@backref{4}{turneretal2017ambiguity}{0}{1}{1}
\abx@aux@page{4}{1}
\abx@aux@backref{5}{rigbyetal2017role}{0}{1}{1}
\abx@aux@page{5}{1}
\abx@aux@backref{6}{turneretal2017ambiguity}{0}{1}{1}
\abx@aux@page{6}{1}
\abx@aux@cite{eiler2007clumped}
\abx@aux@segm{0}{0}{eiler2007clumped}
\abx@aux@cite{stolperetal2014combined}
\abx@aux@segm{0}{0}{stolperetal2014combined}
\abx@aux@cite{wangetal2015nonequilibrium}
\abx@aux@segm{0}{0}{wangetal2015nonequilibrium}
\abx@aux@backref{7}{rigbyetal2017role}{0}{2}{2}
\abx@aux@page{7}{2}
\abx@aux@backref{8}{rigbyetal2017role}{0}{2}{2}
\abx@aux@page{8}{2}
\abx@aux@backref{9}{turneretal2017ambiguity}{0}{2}{2}
\abx@aux@page{9}{2}
\abx@aux@backref{10}{turneretal2017ambiguity}{0}{2}{2}
\abx@aux@backref{11}{turneretal2017ambiguity}{0}{2}{2}
\abx@aux@page{11}{2}
\abx@aux@backref{12}{eiler2007clumped}{0}{2}{2}
\abx@aux@page{12}{2}
\abx@aux@backref{13}{stolperetal2014combined}{0}{2}{2}
\abx@aux@page{13}{2}
\abx@aux@backref{14}{wangetal2015nonequilibrium}{0}{2}{2}
\abx@aux@page{14}{2}
\abx@aux@cite{whitehilletal2017clumped}
\abx@aux@segm{0}{0}{whitehilletal2017clumped}
\abx@aux@segm{0}{0}{whitehilletal2017clumped}
\abx@aux@cite{haghnegahdaretal2017model}
\abx@aux@segm{0}{0}{haghnegahdaretal2017model}
\abx@aux@segm{0}{0}{whitehilletal2017clumped}
\abx@aux@cite{fujitaetal2018temporal}
\abx@aux@segm{0}{0}{fujitaetal2018temporal}
\abx@aux@segm{0}{0}{fujitaetal2018temporal}
\abx@aux@cite{cunnoldetal1994global}
\abx@aux@segm{0}{0}{cunnoldetal1994global}
\newlabel{equ:D_13CH3D}{{10}{3}{Introduction}{equation.1.10}{}}
\newlabel{equ:D_12CH2D2}{{11}{3}{Introduction}{equation.1.11}{}}
\abx@aux@backref{15}{whitehilletal2017clumped}{0}{3}{3}
\abx@aux@backref{16}{whitehilletal2017clumped}{0}{3}{3}
\abx@aux@page{16}{3}
\abx@aux@backref{17}{haghnegahdaretal2017model}{0}{3}{3}
\abx@aux@page{17}{3}
\abx@aux@backref{18}{whitehilletal2017clumped}{0}{3}{3}
\abx@aux@page{18}{3}
\@writefile{toc}{\defcounter {refsection}{0}\relax }\@writefile{toc}{\contentsline {section}{\numberline {2}Methods}{3}{section.2}}
\@writefile{toc}{\defcounter {refsection}{0}\relax }\@writefile{toc}{\contentsline {subsection}{\numberline {2.1}Methane Observations}{3}{subsection.2.1}}
\abx@aux@backref{19}{fujitaetal2018temporal}{0}{3}{3}
\abx@aux@backref{20}{fujitaetal2018temporal}{0}{3}{3}
\abx@aux@page{20}{3}
\abx@aux@cite{goodmanweare2010ensemble}
\abx@aux@segm{0}{0}{goodmanweare2010ensemble}
\abx@aux@segm{0}{0}{haghnegahdaretal2017model}
\abx@aux@cite{janssens-maenhoutetal2017edgar}
\abx@aux@segm{0}{0}{janssens-maenhoutetal2017edgar}
\abx@aux@cite{bloometal2017global}
\abx@aux@segm{0}{0}{bloometal2017global}
\abx@aux@cite{werfetal2017global}
\abx@aux@segm{0}{0}{werfetal2017global}
\@writefile{toc}{\defcounter {refsection}{0}\relax }\@writefile{toc}{\contentsline {subsection}{\numberline {2.2}Chemical Transport Model}{4}{subsection.2.2}}
\abx@aux@backref{21}{cunnoldetal1994global}{0}{4}{4}
\abx@aux@page{21}{4}
\@writefile{toc}{\defcounter {refsection}{0}\relax }\@writefile{toc}{\contentsline {subsection}{\numberline {2.3}Inverse Method}{4}{subsection.2.3}}
\abx@aux@backref{22}{goodmanweare2010ensemble}{0}{4}{4}
\abx@aux@page{22}{4}
\abx@aux@backref{23}{haghnegahdaretal2017model}{0}{4}{4}
\abx@aux@page{23}{4}
\@writefile{toc}{\defcounter {refsection}{0}\relax }\@writefile{toc}{\contentsline {subsection}{\numberline {2.4}Prior Information and Model Settings}{4}{subsection.2.4}}
\@writefile{toc}{\defcounter {refsection}{0}\relax }\@writefile{toc}{\contentsline {subsubsection}{\numberline {2.4.1}Initial conditions}{4}{subsubsection.2.4.1}}
\@writefile{toc}{\defcounter {refsection}{0}\relax }\@writefile{toc}{\contentsline {subsubsection}{\numberline {2.4.2}Source Magnitude and Isotopic Composition}{4}{subsubsection.2.4.2}}
\abx@aux@backref{24}{janssens-maenhoutetal2017edgar}{0}{4}{4}
\abx@aux@page{24}{4}
\abx@aux@cite{saunoisetal2016global}
\abx@aux@segm{0}{0}{saunoisetal2016global}
\abx@aux@segm{0}{0}{saunoisetal2016global}
\abx@aux@cite{jpl2013islscpii}
\abx@aux@segm{0}{0}{jpl2013islscpii}
\abx@aux@segm{0}{0}{haghnegahdaretal2017model}
\abx@aux@segm{0}{0}{haghnegahdaretal2017model}
\abx@aux@backref{25}{bloometal2017global}{0}{5}{5}
\abx@aux@page{25}{5}
\abx@aux@backref{26}{werfetal2017global}{0}{5}{5}
\abx@aux@page{26}{5}
\abx@aux@backref{27}{saunoisetal2016global}{0}{5}{5}
\abx@aux@backref{28}{saunoisetal2016global}{0}{5}{5}
\abx@aux@page{28}{5}
\abx@aux@backref{29}{jpl2013islscpii}{0}{5}{5}
\abx@aux@page{29}{5}
\abx@aux@backref{30}{haghnegahdaretal2017model}{0}{5}{5}
\abx@aux@backref{31}{haghnegahdaretal2017model}{0}{5}{5}
\abx@aux@page{31}{5}
\abx@aux@cite{spivakovskyetal2000three}
\abx@aux@segm{0}{0}{spivakovskyetal2000three}
\abx@aux@cite{patraetal2014observational}
\abx@aux@segm{0}{0}{patraetal2014observational}
\abx@aux@segm{0}{0}{whitehilletal2017clumped}
\abx@aux@segm{0}{0}{whitehilletal2017clumped}
\abx@aux@segm{0}{0}{saunoisetal2016global}
\abx@aux@segm{0}{0}{saunoisetal2016global}
\abx@aux@cite{chipperfieldetal2013sparc}
\abx@aux@segm{0}{0}{chipperfieldetal2013sparc}
\abx@aux@segm{0}{0}{chipperfieldetal2013sparc}
\abx@aux@segm{0}{0}{whitehilletal2017clumped}
\abx@aux@cite{snoverquay2000hydrogen}
\abx@aux@segm{0}{0}{snoverquay2000hydrogen}
\abx@aux@cite{saueressigetal2001carbon}
\abx@aux@segm{0}{0}{saueressigetal2001carbon}
\abx@aux@cite{cunnoldetal1983atmospheric}
\abx@aux@segm{0}{0}{cunnoldetal1983atmospheric}
\abx@aux@segm{0}{0}{cunnoldetal1983atmospheric}
\@writefile{toc}{\defcounter {refsection}{0}\relax }\@writefile{toc}{\contentsline {subsubsection}{\numberline {2.4.3}\ce {OH}}{6}{subsubsection.2.4.3}}
\abx@aux@backref{32}{spivakovskyetal2000three}{0}{6}{6}
\abx@aux@page{32}{6}
\abx@aux@backref{33}{patraetal2014observational}{0}{6}{6}
\abx@aux@page{33}{6}
\abx@aux@backref{34}{whitehilletal2017clumped}{0}{6}{6}
\abx@aux@backref{35}{whitehilletal2017clumped}{0}{6}{6}
\abx@aux@page{35}{6}
\@writefile{toc}{\defcounter {refsection}{0}\relax }\@writefile{toc}{\contentsline {subsubsection}{\numberline {2.4.4}Other Sinks}{6}{subsubsection.2.4.4}}
\abx@aux@backref{36}{saunoisetal2016global}{0}{6}{6}
\abx@aux@backref{37}{saunoisetal2016global}{0}{6}{6}
\abx@aux@page{37}{6}
\abx@aux@backref{38}{chipperfieldetal2013sparc}{0}{6}{6}
\abx@aux@backref{39}{chipperfieldetal2013sparc}{0}{6}{6}
\abx@aux@page{39}{6}
\abx@aux@backref{40}{whitehilletal2017clumped}{0}{6}{6}
\abx@aux@page{40}{6}
\abx@aux@backref{41}{snoverquay2000hydrogen}{0}{6}{6}
\abx@aux@page{41}{6}
\abx@aux@backref{42}{saueressigetal2001carbon}{0}{6}{6}
\abx@aux@page{42}{6}
\@writefile{toc}{\defcounter {refsection}{0}\relax }\@writefile{toc}{\contentsline {subsubsection}{\numberline {2.4.5}Transport}{6}{subsubsection.2.4.5}}
\abx@aux@backref{43}{cunnoldetal1983atmospheric}{0}{6}{6}
\abx@aux@backref{44}{cunnoldetal1983atmospheric}{0}{6}{6}
\abx@aux@page{44}{6}
\abx@aux@cite{wangetal2018potential}
\abx@aux@segm{0}{0}{wangetal2018potential}
\abx@aux@segm{0}{0}{wangetal2018potential}
\@writefile{lot}{\defcounter {refsection}{0}\relax }\@writefile{lot}{\contentsline {table}{\numberline {1}{\ignorespaces Different Sensitivity Tests\relax }}{7}{table.caption.1}}
\providecommand*\caption@xref[2]{\@setref\relax\@undefined{#1}}
\newlabel{tab:scenarios}{{1}{7}{Different Sensitivity Tests\relax }{table.caption.1}{}}
\@writefile{toc}{\defcounter {refsection}{0}\relax }\@writefile{toc}{\contentsline {subsubsection}{\numberline {2.4.6}Temporal Correlation}{7}{subsubsection.2.4.6}}
\abx@aux@backref{45}{wangetal2018potential}{0}{7}{7}
\abx@aux@backref{46}{wangetal2018potential}{0}{7}{7}
\abx@aux@page{46}{7}
\@writefile{toc}{\defcounter {refsection}{0}\relax }\@writefile{toc}{\contentsline {section}{\numberline {3}Results and Discussion}{7}{section.3}}
\abx@aux@cite{turneretal2019interpreting}
\abx@aux@segm{0}{0}{turneretal2019interpreting}
\abx@aux@segm{0}{0}{turneretal2019interpreting}
\abx@aux@segm{0}{0}{rigbyetal2017role}
\abx@aux@segm{0}{0}{turneretal2017ambiguity}
\abx@aux@segm{0}{0}{rigbyetal2017role}
\abx@aux@segm{0}{0}{turneretal2017ambiguity}
\abx@aux@segm{0}{0}{rigbyetal2017role}
\abx@aux@segm{0}{0}{rigbyetal2017role}
\abx@aux@segm{0}{0}{rigbyetal2017role}
\abx@aux@segm{0}{0}{rigbyetal2017role}
\abx@aux@segm{0}{0}{rigbyetal2017role}
\abx@aux@segm{0}{0}{rigbyetal2017role}
\abx@aux@segm{0}{0}{rigbyetal2017role}
\abx@aux@segm{0}{0}{rigbyetal2017role}
\abx@aux@segm{0}{0}{rigbyetal2017role}
\abx@aux@segm{0}{0}{turneretal2017ambiguity}
\abx@aux@segm{0}{0}{turneretal2017ambiguity}
\abx@aux@cite{maasakkersetal2019global}
\abx@aux@segm{0}{0}{maasakkersetal2019global}
\abx@aux@segm{0}{0}{maasakkersetal2019global}
\@writefile{toc}{\defcounter {refsection}{0}\relax }\@writefile{toc}{\contentsline {subsection}{\numberline {3.1}Initial Inversion}{8}{subsection.3.1}}
\abx@aux@backref{47}{turneretal2019interpreting}{0}{8}{8}
\abx@aux@backref{48}{turneretal2019interpreting}{0}{8}{8}
\abx@aux@page{48}{8}
\abx@aux@backref{49}{rigbyetal2017role}{0}{8}{8}
\abx@aux@backref{50}{turneretal2017ambiguity}{0}{8}{8}
\abx@aux@backref{51}{rigbyetal2017role}{0}{8}{8}
\abx@aux@page{51}{8}
\abx@aux@backref{52}{turneretal2017ambiguity}{0}{8}{8}
\abx@aux@page{52}{8}
\abx@aux@backref{53}{rigbyetal2017role}{0}{8}{8}
\abx@aux@backref{54}{rigbyetal2017role}{0}{8}{8}
\abx@aux@page{54}{8}
\abx@aux@backref{55}{rigbyetal2017role}{0}{8}{8}
\abx@aux@backref{56}{rigbyetal2017role}{0}{8}{8}
\abx@aux@page{56}{8}
\abx@aux@backref{57}{rigbyetal2017role}{0}{8}{8}
\abx@aux@backref{58}{rigbyetal2017role}{0}{8}{8}
\abx@aux@page{58}{8}
\abx@aux@backref{61}{rigbyetal2017role}{0}{8}{8}
\abx@aux@page{61}{8}
\abx@aux@backref{62}{turneretal2017ambiguity}{0}{8}{8}
\abx@aux@backref{63}{turneretal2017ambiguity}{0}{8}{8}
\abx@aux@page{63}{8}
\abx@aux@backref{64}{maasakkersetal2019global}{0}{8}{8}
\abx@aux@backref{65}{maasakkersetal2019global}{0}{8}{8}
\abx@aux@page{65}{8}
\@writefile{toc}{\defcounter {refsection}{0}\relax }\@writefile{toc}{\contentsline {subsection}{\numberline {3.2}Simple Perturbations}{8}{subsection.3.2}}
\@writefile{lof}{\defcounter {refsection}{0}\relax }\@writefile{lof}{\contentsline {figure}{\numberline {1}{\ignorespaces Result of the Si0a. Green is observation, brown is the prior, and blue is the posterior. The left is the observation vector, and the right is the state vector.\relax }}{9}{figure.caption.2}}
\newlabel{fig:fig_sce000000}{{1}{9}{Result of the Si0a. Green is observation, brown is the prior, and blue is the posterior. The left is the observation vector, and the right is the state vector.\relax }{figure.caption.2}{}}
\@writefile{lof}{\defcounter {refsection}{0}\relax }\@writefile{lof}{\contentsline {figure}{\numberline {2}{\ignorespaces Posterior average tropospheric \ce {OH} concentrations of this study (brown) and \citet {rigbyetal2017role} (green).\relax }}{10}{figure.caption.3}}
\abx@aux@backref{59}{rigbyetal2017role}{0}{10}{10}
\abx@aux@backref{60}{rigbyetal2017role}{0}{10}{10}
\newlabel{fig:OH_comp_0000}{{2}{10}{Posterior average tropospheric \ce {OH} concentrations of this study (brown) and \citet {rigbyetal2017role} (green).\relax }{figure.caption.3}{}}
\@writefile{toc}{\defcounter {refsection}{0}\relax }\@writefile{toc}{\contentsline {subsection}{\numberline {3.3}Several \ce {OH} Pathways}{10}{subsection.3.3}}
\@writefile{lof}{\defcounter {refsection}{0}\relax }\@writefile{lof}{\contentsline {figure}{\numberline {3}{\ignorespaces Scenarios Sf2a, b and posterior of Si0a\relax }}{11}{figure.caption.4}}
\newlabel{fig:fig_sen_oh_oh}{{3}{11}{Scenarios Sf2a, b and posterior of Si0a\relax }{figure.caption.4}{}}
\@writefile{lof}{\defcounter {refsection}{0}\relax }\@writefile{lof}{\contentsline {figure}{\numberline {4}{\ignorespaces Scenarios Sf2c, d and posterior of Si0a\relax }}{12}{figure.caption.5}}
\newlabel{fig:fig_sen_oh_q}{{4}{12}{Scenarios Sf2c, d and posterior of Si0a\relax }{figure.caption.5}{}}
\abx@aux@segm{0}{0}{haghnegahdaretal2017model}
\abx@aux@segm{0}{0}{haghnegahdaretal2017model}
\abx@aux@segm{0}{0}{haghnegahdaretal2017model}
\abx@aux@segm{0}{0}{haghnegahdaretal2017model}
\abx@aux@backref{66}{haghnegahdaretal2017model}{0}{13}{13}
\abx@aux@backref{67}{haghnegahdaretal2017model}{0}{13}{13}
\abx@aux@page{67}{13}
\abx@aux@backref{68}{haghnegahdaretal2017model}{0}{13}{13}
\abx@aux@backref{69}{haghnegahdaretal2017model}{0}{13}{13}
\abx@aux@page{69}{13}
\@writefile{toc}{\defcounter {refsection}{0}\relax }\@writefile{toc}{\contentsline {subsection}{\numberline {3.4}Fixed emission and \ce {OH}}{13}{subsection.3.4}}
\@writefile{lof}{\defcounter {refsection}{0}\relax }\@writefile{lof}{\contentsline {figure}{\numberline {5}{\ignorespaces Results of Si2a and Si2b with different \ce {OH} scenarios described in Figure~\ref  {fig:}.\relax }}{14}{figure.caption.6}}
\newlabel{fig:fig_sen_oh}{{5}{14}{Results of Si2a and Si2b with different \ce {OH} scenarios described in Figure~\ref {fig:}.\relax }{figure.caption.6}{}}
\abx@aux@segm{0}{0}{turneretal2017ambiguity}
\abx@aux@segm{0}{0}{turneretal2017ambiguity}
\abx@aux@backref{70}{turneretal2017ambiguity}{0}{15}{15}
\abx@aux@backref{71}{turneretal2017ambiguity}{0}{15}{15}
\abx@aux@page{71}{15}
\@writefile{toc}{\defcounter {refsection}{0}\relax }\@writefile{toc}{\contentsline {subsection}{\numberline {3.5}Different Initial Ambient Clumped Signature}{15}{subsection.3.5}}
\@writefile{toc}{\defcounter {refsection}{0}\relax }\@writefile{toc}{\contentsline {subsection}{\numberline {3.6}Using different isotopic signature}{15}{subsection.3.6}}
\@writefile{toc}{\defcounter {refsection}{0}\relax }\@writefile{toc}{\contentsline {subsection}{\numberline {3.7}Fixed emission and \ce {OH}}{15}{subsection.3.7}}
\@writefile{lof}{\defcounter {refsection}{0}\relax }\@writefile{lof}{\contentsline {figure}{\numberline {6}{\ignorespaces Results of Si1a and Si1b, where one scenario has \ce {OH} anomaly and other the emission fixed to the prior (green and brown, respectively).\relax }}{16}{figure.caption.7}}
\newlabel{fig:fig_sen_turner}{{6}{16}{Results of Si1a and Si1b, where one scenario has \ce {OH} anomaly and other the emission fixed to the prior (green and brown, respectively).\relax }{figure.caption.7}{}}
\@writefile{lof}{\defcounter {refsection}{0}\relax }\@writefile{lof}{\contentsline {figure}{\numberline {7}{\ignorespaces D = 3.75, 90.0\relax }}{17}{figure.caption.8}}
\newlabel{fig:fig_d_375_09000}{{7}{17}{D = 3.75, 90.0\relax }{figure.caption.8}{}}
\@writefile{lof}{\defcounter {refsection}{0}\relax }\@writefile{lof}{\contentsline {figure}{\numberline {8}{\ignorespaces D = 5.0, 100.0\relax }}{18}{figure.caption.9}}
\newlabel{fig:fig_d_500_10000}{{8}{18}{D = 5.0, 100.0\relax }{figure.caption.9}{}}
\@writefile{lof}{\defcounter {refsection}{0}\relax }\@writefile{lof}{\contentsline {figure}{\numberline {9}{\ignorespaces Result of the initial inversion, but with a source signature reflecting the source distribution. Green is observation, brown is the prior, and blue is the posterior. The left is the observation vector, and the right is the state vector.\relax }}{19}{figure.caption.10}}
\newlabel{fig:res_all_0005}{{9}{19}{Result of the initial inversion, but with a source signature reflecting the source distribution. Green is observation, brown is the prior, and blue is the posterior. The left is the observation vector, and the right is the state vector.\relax }{figure.caption.10}{}}
\abx@aux@segm{0}{0}{turneretal2017ambiguity}
\abx@aux@segm{0}{0}{turneretal2017ambiguity}
\abx@aux@segm{0}{0}{haghnegahdaretal2017model}
\abx@aux@segm{0}{0}{haghnegahdaretal2017model}
\abx@aux@segm{0}{0}{haghnegahdaretal2017model}
\abx@aux@segm{0}{0}{haghnegahdaretal2017model}
\abx@aux@backref{72}{turneretal2017ambiguity}{0}{20}{20}
\abx@aux@backref{73}{turneretal2017ambiguity}{0}{20}{20}
\abx@aux@page{73}{20}
\@writefile{toc}{\defcounter {refsection}{0}\relax }\@writefile{toc}{\contentsline {subsection}{\numberline {3.8}Several \ce {OH} Pathways}{20}{subsection.3.8}}
\abx@aux@backref{74}{haghnegahdaretal2017model}{0}{20}{20}
\abx@aux@backref{75}{haghnegahdaretal2017model}{0}{20}{20}
\abx@aux@page{75}{20}
\abx@aux@backref{76}{haghnegahdaretal2017model}{0}{20}{20}
\abx@aux@backref{77}{haghnegahdaretal2017model}{0}{20}{20}
\abx@aux@page{77}{20}
\@writefile{lof}{\defcounter {refsection}{0}\relax }\@writefile{lof}{\contentsline {figure}{\numberline {10}{\ignorespaces Results of Si1a and Si1b, where one scenario has \ce {OH} anomaly and other the emission fixed to the prior (green and brown, respectively).\relax }}{21}{figure.caption.11}}
\newlabel{fig:fig_sen_turner}{{10}{21}{Results of Si1a and Si1b, where one scenario has \ce {OH} anomaly and other the emission fixed to the prior (green and brown, respectively).\relax }{figure.caption.11}{}}
\@writefile{lof}{\defcounter {refsection}{0}\relax }\@writefile{lof}{\contentsline {figure}{\numberline {11}{\ignorespaces Results of Si2a and Si2b with different \ce {OH} scenarios described in Figure~\ref  {fig:}.\relax }}{22}{figure.caption.12}}
\newlabel{fig:fig_sen_oh}{{11}{22}{Results of Si2a and Si2b with different \ce {OH} scenarios described in Figure~\ref {fig:}.\relax }{figure.caption.12}{}}
\@writefile{toc}{\defcounter {refsection}{0}\relax }\@writefile{toc}{\contentsline {section}{\numberline {4}Conclusion}{23}{section.4}}
\abx@aux@page{78}{23}
\abx@aux@page{79}{23}
\abx@aux@page{80}{23}
\abx@aux@page{81}{23}
\abx@aux@page{82}{23}
\abx@aux@page{83}{23}
\abx@aux@page{84}{23}
\abx@aux@page{85}{23}
\abx@aux@page{86}{23}
\abx@aux@page{87}{23}
\abx@aux@page{88}{24}
\abx@aux@page{89}{24}
\abx@aux@page{90}{24}
\abx@aux@page{91}{24}
\abx@aux@page{92}{24}
\abx@aux@page{93}{24}
\abx@aux@page{94}{24}
\abx@aux@page{95}{24}
\abx@aux@refcontextdefaultsdone
\abx@aux@defaultrefcontext{0}{bloometal2017global}{nyt/global/}
\abx@aux@defaultrefcontext{0}{chipperfieldetal2013sparc}{nyt/global/}
\abx@aux@defaultrefcontext{0}{cunnoldetal1994global}{nyt/global/}
\abx@aux@defaultrefcontext{0}{cunnoldetal1983atmospheric}{nyt/global/}
\abx@aux@defaultrefcontext{0}{eiler2007clumped}{nyt/global/}
\abx@aux@defaultrefcontext{0}{etminanetal2016radiative}{nyt/global/}
\abx@aux@defaultrefcontext{0}{fujitaetal2018temporal}{nyt/global/}
\abx@aux@defaultrefcontext{0}{goodmanweare2010ensemble}{nyt/global/}
\abx@aux@defaultrefcontext{0}{haghnegahdaretal2017model}{nyt/global/}
\abx@aux@defaultrefcontext{0}{janssens-maenhoutetal2017edgar}{nyt/global/}
\abx@aux@defaultrefcontext{0}{jpl2013islscpii}{nyt/global/}
\abx@aux@defaultrefcontext{0}{maasakkersetal2019global}{nyt/global/}
\abx@aux@defaultrefcontext{0}{nisbetetal2016rising}{nyt/global/}
\abx@aux@defaultrefcontext{0}{patraetal2014observational}{nyt/global/}
\abx@aux@defaultrefcontext{0}{rigbyetal2017role}{nyt/global/}
\abx@aux@defaultrefcontext{0}{saueressigetal2001carbon}{nyt/global/}
\abx@aux@defaultrefcontext{0}{saunoisetal2016global}{nyt/global/}
\abx@aux@defaultrefcontext{0}{schaeferetal201621st}{nyt/global/}
\abx@aux@defaultrefcontext{0}{snoverquay2000hydrogen}{nyt/global/}
\abx@aux@defaultrefcontext{0}{spivakovskyetal2000three}{nyt/global/}
\abx@aux@defaultrefcontext{0}{stolperetal2014combined}{nyt/global/}
\abx@aux@defaultrefcontext{0}{turneretal2019interpreting}{nyt/global/}
\abx@aux@defaultrefcontext{0}{turneretal2017ambiguity}{nyt/global/}
\abx@aux@defaultrefcontext{0}{werfetal2017global}{nyt/global/}
\abx@aux@defaultrefcontext{0}{wangetal2015nonequilibrium}{nyt/global/}
\abx@aux@defaultrefcontext{0}{wangetal2018potential}{nyt/global/}
\abx@aux@defaultrefcontext{0}{whitehilletal2017clumped}{nyt/global/}
\abx@aux@page{96}{25}
\abx@aux@page{97}{25}
\abx@aux@page{98}{25}
\abx@aux@page{99}{25}
\abx@aux@page{100}{25}
\abx@aux@page{101}{25}
\abx@aux@page{102}{25}
\abx@aux@page{103}{25}
\abx@aux@page{104}{25}
